{
    "request" : {
      "urlPathPattern" : "/billpayAPI/v1/isRoutingValid",
      "method" : "POST",
      "headers" : {
        "Content-Type" : {
          "equalTo" : "application/json"
        }
      },
      "bodyPatterns" : [ {
        "matchesJsonPath" : "$.BillPayAccountValidation[?(@.RppsId =~ /[0-9].*[1-9].[0-9]+$/)]"
      } ]
    },
    "response" : {
      "status" : 200,
      "statusMessage" : "OK",
      "body" : "{\n  \"BillPayAccountValidation\": {\n    \"RppsId\": \"99887761\",\n    \"BillerId\": \"9998887771\",\n    \"AccountNumber\": \"1234567890\",\n    \"TransactionAmount\": \"250.00\",\n    \"CustomerIdentifier1\": \"\",\n    \"CustomerIdentifier2\": \"\",\n    \"CustomerIdentifier3\": \"\",\n    \"CustomerIdentifier4\": \"\",\n    \"ResponseString\": \"Successful\"\n  }\n}",
      "headers" : {
        "Content-Type" : "application/json"
      }    
    }
  }