{
	"info": {
		"_postman_id": "b7c29b71-7ccd-47e5-b9b0-b7a134ae511b",
		"name": "Experian Services",
		"schema": "https://schema.getpostman.com/json/collection/v2.1.0/collection.json",
		"_exporter_id": "23733802"
	},
	"item": [
		{
			"name": "Automotive",
			"item": [
				{
					"name": "Auto AccuSelect",
					"item": [
						{
							"name": "v1",
							"item": [
								{
									"name": "Vin Specification",
									"request": {
										"method": "GET",
										"header": [],
										"url": {
											"raw": "localhost:8080/v1/vinspecifications/vinlist?vid=1GNFC130X8R2XXXXX",
											"host": [
												"localhost"
											],
											"port": "8080",
											"path": [
												"v1",
												"vinspecifications",
												"vinlist"
											],
											"query": [
												{
													"key": "vid",
													"value": "1GNFC130X8R2XXXXX"
												}
											]
										},
										"description": "StartFragment\n\n**Vin Specification** API provides the vehicle descriptions of a vehicle such as year, make, model, class, country, body and other specification details along with the total event count.\n\n  \nHere are sample VINS you can use for testing: KL1TD526X5B4XXXXX, 1GNFC130X8R2XXXXX, JA7FJ23E5JJ0XXXXX, 3C3EL55H0TT2XXXXX, 1FACP41E1LF1XXXXX\n\nEndFragment"
									},
									"response": []
								},
								{
									"name": "Experian_Sandbox",
									"request": {
										"method": "GET",
										"header": []
									},
									"response": []
								}
							]
						}
					]
				}
			]
		},
		{
			"name": "Business Information",
			"item": [
				{
					"name": "Account Monitoring Service",
					"item": [
						{
							"name": "v1",
							"item": [
								{
									"name": "alerts",
									"item": [
										{
											"name": "AMS Alerts List",
											"request": {
												"method": "POST",
												"header": [],
												"body": {
													"mode": "raw",
													"raw": "{\r\n    \"subscriberSubcode\": \"0475537\",\r\n    \"customerSubcode\": \"0475538\",\r\n    \"filterCriteria\": \"DATE\",\r\n    \"startDate\": \"2016-09-24\",\r\n    \"endDate\": \"2016-12-31\"\r\n}",
													"options": {
														"raw": {
															"language": "json"
														}
													}
												},
												"url": {
													"raw": "{{Experian}}/v1/alerts/list",
													"host": [
														"{{Experian}}"
													],
													"path": [
														"v1",
														"alerts",
														"list"
													]
												}
											},
											"response": []
										}
									]
								}
							]
						}
					]
				}
			]
		},
		{
			"name": "Consumer Data",
			"item": [
				{
					"name": "Homeowner Verification",
					"item": [
						{
							"name": "verify_ownership",
							"request": {
								"method": "POST",
								"header": [],
								"body": {
									"mode": "raw",
									"raw": "{\r\n  \"reference\": \"REF123\",\r\n  \"forename\": \"eoov-fm-1\",\r\n  \"middlename\": \"J\",\r\n  \"surname\": \"Smith\",\r\n  \"titleNumber\": \"T12345\",\r\n  \"options\": {\r\n    \"skipPartialMatching\": false,\r\n    \"skipHistoricalMatching\": false\r\n  }\r\n}"
								},
								"url": {
									"raw": "{{Experian}}/verifyownership/title",
									"host": [
										"{{Experian}}"
									],
									"path": [
										"verifyownership",
										"title"
									]
								}
							},
							"response": []
						}
					]
				}
			]
		}
	],
	"variable": [
		{
			"key": "Experian_Services",
			"value": "http://LTIN293426:5053/"
		},
		{
			"key": "Experian",
			"value": "http://LTIN293426:5053/ExperianServices"
		}
	]
}