{
    "vinSpecifications": {
        "vehicleCount": 1,
        "vehicle": [
            {
                "vin": "KL1TD526X5B4XXXXX",
                "year": 2005,
                "make": "Chevrolet",
                "model": "Aveo",
                "class": "Car - Subcompact",
                "trim": "LS / Special Value",
                "country": "South Korea",
                "bodyStyle": "Sedan",
                "doors": "4D",
                "drivetrain": "FWD",
                "transmissionType": "Manual 5sp",
                "wheelSize": "166.7 in",
                "engineSize": "1.6L I4 FI",
                "cylinders": "I4",
                "horsepower": "max 103_at_6000, min 103_at_6000",
                "eventCount": 40,
                "resultCode": 0,
                "resultMessage": "No error."
            }
        ]
    }
}