{
  "id" : "7518622f-8b16-41d6-b063-faf1376b65e9",
  "request" : {
    "urlPathPattern" : "/abu/accounts/([a-z]*)",
    "method" : "POST",
    "headers" : {
      "Content-Type" : {
        "equalTo" : "application/json"
      }
    },
    "bodyPatterns" : [ {
      "matchesJsonPath" : "$.account[?(@.accountNumber =~ /[0-9].*[1]$/)]"
    } ]
  },
  "response" : {
    "status" : 200,
    "statusMessage" : "OK",
    "headers" : {
      "Content-Type" : "application/json"
    },
    "body" : "{\n\t\"responseIndicator\": \"NON_PARTICIPATING\"\n}"
  },
  "uuid" : "7518622f-8b16-41d6-b063-faf1376b65e9",
  "persistent" : true,
  "insertionIndex" : 7
}